CODE,AREA,percent_greens,percent_built,human_pressure,variable1
690340402,0.250077648263999,30.0,70.0,63.0,Favorable
690340602,1.5833903063060508,22.0,78.0,54.0,Not much favorable
690340801,0.5367916995780644,26.0,74.0,57.0,Favorable
692560101,11.140682472718423,89.0,11.0,22.0,Very favorable
692660201,2.494419474635855,60.0,40.0,112.0,Favorable
693860101,0.3519529121361993,80,20,27,Favorable
693860102,1.054014669122649,94.0,6.0,97.0,Very favorable
693860103,0.15623806689001005,10.0,90.0,86.0,Not much favorable
693860104,0.20715443765638236,17.0,83.0,77.0,Not much favorable
693860302,0.08807257701293686,60.0,40.0,37.0,Unfavorable
693860303,0.09001423347166965,7.0,93.0,123.0,Unfavorable
