INDICATOR	LABEL	LEVEL	ANCESTOR
C101	École maternelle	1	
C101_NB_CANT	École maternelle avec cantine	2	['C101']
C101_NB_EP	École maternelle appartenant à un EP	2	['C101']
C101_NB_RPIC	École maternelle en RPIC	2	['C101']
C102	École maternelle en RPI dispersé	1	
C102_NB_CANT	École maternelle de RPI dispersé avec cantine	2	['C102']
C102_NB_EP	École maternelle en RPIC appartenant à un EP	2	['C102']
C104	École élémentaire	1	
C104_NB_CANT	École élémentaire avec cantine	2	['C104']
C104_NB_EP	École élémentaire appartenant à un EP	2	['C104']
C104_NB_PELEM	École élémentaire avec classe pré-élémentaire	2	['C104']
C104_NB_RPIC	École élémentaire en RPIC	2	['C104']
C105	École élémentaire de RPI dispersé	1	
C105_NB_CANT	École élémentaire de RPI dispersé avec cantine	2	['C105']
C105_NB_EP	École élémentaire de RPI dispersé appartenant à un EP	2	['C105']
C105_NB_PELEM	École élémentaire de RPI dispersé avec école pré-élémentaire	2	['C105']
C14_ACT1564	Actifs 15-64 ans en 2014 (compl)	2	['P14_POP']
C14_ACT1564_CS1	Actifs 15-64 ans Agriculteurs exploitants en 2014 (compl)	3	['C14_ACT1564']
C14_ACT1564_CS2	Actifs 15-64 ans Artisans, Comm., Chefs entr. en 2014 (compl)	3	['C14_ACT1564']
C14_ACT1564_CS3	Actifs 15-64 ans Cadres, Prof. intel. sup. en 2014 (compl)	3	['C14_ACT1564']
C14_ACT1564_CS4	Actifs 15-64 ans Prof. intermédiaires en 2014 (compl)	3	['C14_ACT1564']
C14_ACT1564_CS5	Actifs 15-64 ans Employés en 2014 (compl)	3	['C14_ACT1564']
C14_ACT1564_CS6	Actifs 15-64 ans Ouvriers en 2014 (compl)	3	['C14_ACT1564']
C14_ACTOCC1564	Actifs occupés 15-64 ans en 2014 (compl)	3	['C14_ACT1564']
C14_ACTOCC1564_CS1	Actifs occ 15-64 ans Agriculteurs exploitants en 2014 (compl)	4	['C14_ACTOCC1564']
C14_ACTOCC1564_CS2	Actifs occ 15-64 ans Artisans, Comm., Chefs entr. en 2014 (compl)	4	['C14_ACTOCC1564']
C14_ACTOCC1564_CS3	Actifs occ 15-64 ans Cadres, Prof. intel. sup. en 2014 (compl)	4	['C14_ACTOCC1564']
C14_ACTOCC1564_CS4	Actifs occ 15-64 ans Prof. intermédiaires en 2014 (compl)	4	['C14_ACTOCC1564']
C14_ACTOCC1564_CS5	Actifs occ 15-64 ans Employés en 2014 (compl)	4	['C14_ACTOCC1564']
C14_ACTOCC1564_CS6	Actifs occ 15-64 ans Ouvriers en 2014 (compl)	4	['C14_ACTOCC1564']
C14_ACTOCC15P	Actif occ 15 ans ou plus en 2014 (compl)	2	
C14_ACTOCC15P_DROU	Actif occ 15 ans ou plus deux roues en 2014 (compl)	3	['C14_ACTOCC15P']
C14_ACTOCC15P_MAR	Actif occ 15 ans ou plus marche à pied en 2014 (compl)	3	['C14_ACTOCC15P']
C14_ACTOCC15P_PAS	Actif occ 15 ans ou plus pas de transport en 2014 (compl)	3	['C14_ACTOCC15P']
C14_ACTOCC15P_TCOM	Actif occ 15 ans ou plus transport en commun en 2014 (compl)	3	['C14_ACTOCC15P']
C14_ACTOCC15P_VOIT	Actif occ 15 ans ou plus voiture en 2014 (compl)	3	['C14_ACTOCC15P']
C14_COUPAENF	Fam Couple avec enfant(s) en 2014 (compl)	2	
C14_COUPSENF	Fam Couple sans enfant en 2014 (compl)	2	
C14_F15P	Pop 15 ans ou plus Femmes en 2014 (compl)	3	['P14_POPF']
C14_F15P_CS1	Pop 15 ans ou plus Femmes Agriculteurs exploitants en 2014 (compl)	4	['C14_F15P']
C14_F15P_CS2	Pop 15 ans ou plus Femmes Artisans, Comm., Chefs entr. en 2014 (compl)	4	['C14_F15P']
C14_F15P_CS3	Pop 15 ans ou plus Femmes Cadres, Prof. intel. sup. en 2014 (compl)	4	['C14_F15P']
C14_F15P_CS4	Pop 15 ans ou plus Femmes Prof. intermédiaires en 2014 (compl)	4	['C14_F15P']
C14_F15P_CS5	Pop 15 ans ou plus Femmes Employés en 2014 (compl)	4	['C14_F15P']
C14_F15P_CS6	Pop 15 ans ou plus Femmes Ouvriers en 2014 (compl)	4	['C14_F15P']
C14_F15P_CS7	Pop 15 ans ou plus Femmes Retraités en 2014 (compl)	4	['C14_F15P']
C14_F15P_CS8	Pop 15 ans ou plus Femmes Autres en 2014 (compl)	4	['C14_F15P']
C14_FAM	Familles en 2014 (compl)	2	['P14_POP']
C14_FAMMONO	Fam Monoparentales en 2014 (compl)	3	['C14_FAM']
C14_H15P	Pop 15 ans ou plus Hommes en 2014 (compl)	3	P14_POPH
C14_H15P_CS1	Pop 15 ans ou plus Hommes Agriculteurs exploitants en 2014 (compl)	4	['C14_H15P']
C14_H15P_CS2	Pop 15 ans ou plus Hommes Artisans, Comm., Chefs entr. en 2014 (compl)	4	['C14_H15P']
C14_H15P_CS3	Pop 15 ans ou plus Hommes Cadres, Prof. intel. sup. en 2014 (compl)	4	['C14_H15P']
C14_H15P_CS4	Pop 15 ans ou plus Hommes Prof. intermédiaires en 2014 (compl)	4	['C14_H15P']
C14_H15P_CS5	Pop 15 ans ou plus Hommes Employés en 2014 (compl)	4	['C14_H15P']
C14_H15P_CS6	Pop 15 ans ou plus Hommes Ouvriers en 2014 (compl)	4	['C14_H15P']
C14_H15P_CS7	Pop 15 ans ou plus Hommes Retraités en 2014 (compl)	4	['C14_H15P']
C14_H15P_CS8	Pop 15 ans ou plus Hommes Autres en 2014 (compl)	4	['C14_H15P']
C14_MEN	Ménages en 2014 (compl)	2	['P14_POP']
C14_MEN_CS1	Ménages Pers Réf Agri. expl. en 2014 (compl)	3	['C14_MEN']
C14_MEN_CS2	Ménages Pers Réf Art. Comm. Chefs entr. en 2014 (compl)	3	['C14_MEN']
C14_MEN_CS3	Ménages Pers Réf Cadres Prof int sup en 2014 (compl)	3	['C14_MEN']
C14_MEN_CS4	Ménages Pers Réf Prof intermédiaire en 2014 (compl)	3	['C14_MEN']
C14_MEN_CS5	Ménages Pers Réf Employé en 2014 (compl)	3	['C14_MEN']
C14_MEN_CS6	Ménages Pers Réf Ouvrier en 2014 (compl)	3	['C14_MEN']
C14_MEN_CS7	Ménages Pers Réf Retraité en 2014 (compl)	3	['C14_MEN']
C14_MEN_CS8	Ménages Pers Réf Autre en 2014 (compl)	3	['C14_MEN']
C14_MENCOUPAENF	Mén fam princ Couple avec enfant(s) en 2014 (compl)	3	['C14_MEN']
C14_MENCOUPSENF	Mén fam princ Couple sans enfant en 2014 (compl)	3	['C14_MEN']
C14_MENFAM	Ménages avec famille(s) en 2014 (compl)	3	['C14_MEN']
C14_MENFAMMONO	Mén fam princ Famille mono en 2014 (compl)	4	['C14_MENFAM']
C14_MENFSEUL	Ménages Femmes seules en 2014 (compl)	3	['C14_MEN']
C14_MENHSEUL	Ménages Hommes seuls en 2014 (compl)	3	['C14_MEN']
C14_MENPSEUL	Ménages 1 personne en 2014 (compl)	3	['C14_MEN']
C14_MENSFAM	Ménages Autres sans famille en 2014 (compl)	3	['C14_MEN']
C14_NE24F0	Fam 0 enfant moins 25 ans en 2014 (compl)	2	['P14_POP']
C14_NE24F1	Fam 1 enfant moins 25 ans en 2014 (compl)	2	['P14_POP']
C14_NE24F2	Fam 2 enfants moins 25 ans en 2014 (compl)	2	['P14_POP']
C14_NE24F3	Fam 3 enfants moins 25 ans en 2014 (compl)	2	['P14_POP']
C14_NE24F4P	Fam 4 enfants ou plus moins 25 ans en 2014 (compl)	2	['P14_POP']
C14_PMEN	Pop Ménages en 2014 (compl)	2	['P14_POP']
C14_PMEN_CS1	Pop mén Pers Réf Agri. expl. en 2014 (compl)	3	['C14_PMEN']
C14_PMEN_CS2	Pop mén Pers Réf Art Com Chef ent en 2014 (compl)	3	['C14_PMEN']
C14_PMEN_CS3	Pop mén Pers Réf Cadres Prof int sup en 2014 (compl)	3	['C14_PMEN']
C14_PMEN_CS4	Pop mén Pers Réf Prof intermédiaire en 2014 (compl)	3	['C14_PMEN']
C14_PMEN_CS5	Pop mén Pers Réf Employé en 2014 (compl)	3	['C14_PMEN']
C14_PMEN_CS6	Pop mén Pers Réf Ouvrier en 2014 (compl)	3	['C14_PMEN']
C14_PMEN_CS7	Pop mén Pers Réf Retraité en 2014 (compl)	3	['C14_PMEN']
C14_PMEN_CS8	Pop mén Pers Réf Autre en 2014 (compl)	3	['C14_PMEN']
C14_PMEN_MENCOUPAENF	Pop mén fam princ Couple avec enfant(s) en 2014 (compl)	3	['C14_PMEN']
C14_PMEN_MENCOUPSENF	Pop mén fam princ Couple sans enfant en 2014 (compl)	3	['C14_PMEN']
C14_PMEN_MENFAM	Pop mén avec famille(s) en 2014 (compl)	3	['C14_PMEN']
C14_PMEN_MENFAMMONO	Pop mén fam princ Famille mono en 2014 (compl)	4	['C14_PMEN_MENFAM']
C14_PMEN_MENFSEUL	Pop mén Femmes seules en 2014 (compl)	3	['C14_PMEN']
C14_PMEN_MENHSEUL	Pop mén Hommes seuls en 2014 (compl)	3	['C14_PMEN']
C14_PMEN_MENPSEUL	Pop mén Personnes seules en 2014 (compl)	3	['C14_PMEN']
C14_PMEN_MENSFAM	Pop mén Autres sans famille en 2014 (compl)	3	['C14_PMEN']
C14_POP15P	Pop 15 ans ou plus en 2014 (compl)	2	['P14_POP']
C14_POP15P_CS1	Pop 15 ans ou plus Agriculteurs exploitants en 2014 (compl)	3	['C14_POP15P']
C14_POP15P_CS2	Pop 15 ans ou plus Artisans, Comm., Chefs entr. en 2014 (compl)	3	['C14_POP15P']
C14_POP15P_CS3	Pop 15 ans ou plus Cadres, Prof. intel. sup. en 2014 (compl)	3	['C14_POP15P']
C14_POP15P_CS4	Pop 15 ans ou plus Prof. intermédiaires en 2014 (compl)	3	['C14_POP15P']
C14_POP15P_CS5	Pop 15 ans ou plus Employés en 2014 (compl)	3	['C14_POP15P']
C14_POP15P_CS6	Pop 15 ans ou plus Ouvriers en 2014 (compl)	3	['C14_POP15P']
C14_POP15P_CS7	Pop 15 ans ou plus Retraités en 2014 (compl)	3	['C14_POP15P']
C14_POP15P_CS8	Pop 15 ans ou plus Autres en 2014 (compl)	3	['C14_POP15P']
C15_POP01P	Total : population âgée de 1 an ou plus au 1er janvier 2015	2	['P14_POP']
C15_POP01P_IRAN012	Population n'ayant pas changé de commune (ou arrondissement municipal) de résidence à 1 an d'intervalle	2	['C15_POP01P]
C15_POP01P_IRANAUT	Population ayant changé de commune (ou arrondissement municipal) de résidence à 1an d'intervalle	2	['C15_POP01P]
C201	Collège	1	
C201_NB_CANT	Collège avec cantine	2	['C201']
C201_NB_EP	Collège appartenant à un EP	2	['C201']
C201_NB_INT	Collège avec internat	2	['C201']
C301	Lycée d'enseignement général et/ou technologique	1	
C301_NB_CANT	Lycée d'enseignement général et/ou technologique avec cantine	2	['C301']
C301_NB_EP	Lycée d'enseignement général et/ou technologique appartenant à un EP	2	['C301']
C301_NB_INT	Lycée d'enseignement général et/ou technologique avec internat	2	['C301']
C301_NB_PGE	Lycée d'enseignement général et/ou technologique avec prépa grandes écoles	2	['C301']
C302	Lycée d'enseignement professionnel	1	
C302_NB_CANT	Lycée d'enseignement professionnel avec cantine	2	['C302']
C302_NB_EP	Lycée d'enseignement professionnel appartenant à un EP	2	['C302']
C302_NB_INT	Lycée d'enseignement professionnel avec internat	2	['C302']
C302_NB_PGE	Lycée d'enseignement professionnel avec prépa grandes écoles	2	['C302']
C303	Lycée technique ou/et professionnel agricole	1	
C303_NB_INT	Lycée technique ou/et professionnel agricole avec internat	2	['C303']
C303_NB_PGE	Lycée technique ou/et professionnel agricole avec prépa grandes écoles	2	['C303']
C304	SGT : Section d'enseignement général et technologique	1	
C304_NB_CANT	SGT : Section d'enseignement général et technologique avec cantine	2	['C304']
C304_NB_INT	SGT : Section d'enseignement général et technologique avec internat	2	['C304']
C305	SEP : section d'enseignement professionnel	1	
C305_NB_CANT	SEP : section d'enseignement professionnel avec cantine	2	['C305']
C305_NB_INT	SEP : section d'enseignement professionnel avec internat	2	['C305']
C401	Section Technicien Supérieur, Classe Prépa Grandes Ecoles	1	
C402	Formation santé	1	
C403	Formation commerce	1	
C409	Autre formation post bac non universitaire	1	
C501	Unité de Formation et de Recherche	1	
C502	Institut universitaire	1	
C503	Ecole d'ingénieurs	1	
C504	Enseignement général supérieur privé	1	
C505	Ecole d'enseignement supérieur agricole	1	
C505_NB_INT	Ecole d'enseignement supérieur agricole avec internat	2	['C505']
C509	Autre enseignement supérieur	1	
C601	Centre de formation d'apprentis hors agriculture	1	
C602	GRETA	1	
C603	Centre dispensant de la formation continue agricole	1	
C604	Formation aux métiers du sport	1	
C605	Centre dispensant des formations d'apprentissage agricole	1	
C605_NB_INT	Centre dispensant des formations d'apprentissage agricole avec internat	2	['C605']
C609	Autre formation continue	1	
C701	Résidence universitaire	1	
C702	Restaurant universitaire	1	
DEC_D114	1er décile (€)	1	
DEC_D214	2e décile (€)	1	
DEC_D314	3e décile (€)	1	
DEC_D414	4e décile (€)	1	
DEC_D614	6e décile (€)	1	
DEC_D714	7e décile (€)	1	
DEC_D814	8e décile (€)	1	
DEC_D914	9e décile (€)	1	
DEC_EQ14	Écart interquartile rapporté à la médiane	1	
DEC_GI14	Indice de Gini	1	
DEC_MED14	Médiane ()	1	
DEC_PAUT14	Part des autres revenus (%)	1	
DEC_PBEN14	Part des revenus d'activités non salariées (%)	1	
DEC_PCHO14	Part des indemnités de chômage (%)	1	
DEC_PIMP14	Part des ménages fiscaux imposés (%)	1	
DEC_PPEN14	Part des pensions, retraites et rentes (%)	1	
DEC_PTSA14	Part des revenus d'activités salariées (%)	1	
DEC_Q114	1er quartile(€)	1	
DEC_Q314	3e quartile(€)	1	
DEC_RD14	Rapport interdécile D9/D1	1	
DEC_S80S2014	S80/S20	1	
DEC_TP6014	Taux de bas revenus déclarés au seuil de 60 % (%)	1	
NB_A101	Police	1	
NB_A104	Gendarmerie	1	
NB_A105	Cour d'appel	1	
NB_A106	Tribunal de grande instance	1	
NB_A107	Tribunal d'instance	1	
NB_A108	Conseil des prud'hommes	1	
NB_A109	Tribunal de commerce	1	
NB_A115	Réseau spécialisé pôle emploi	1	
NB_A119	DGFiP	1	
NB_A120	DRFiP	1	
NB_A121	DDFiP	1	
NB_A122	Réseau de proximité pôle emploi	1	
NB_A123	Réseau partenarial pôle emploi	1	
NB_A124	Maison de justice et du droit	1	
NB_A125	Antenne de justice	1	
NB_A203	Banques, caisses d'épargne	1	
NB_A205	Pompes funèbres	1	
NB_A206	Bureau de poste	1	
NB_A207	Relais poste	1	
NB_A208	Agence postale	1	
NB_A301	Réparation auto et de matériel agricole	1	
NB_A302	Contrôle technique auto	1	
NB_A303	Location auto-utilitaires légers	1	
NB_A304	École de conduite	1	
NB_A401	Maçon	1	
NB_A402	Plâtrier, peintre	1	
NB_A403	Menuisier, charpentier, serrurier	1	
NB_A404	Plombier, couvreur, chauffagiste	1	
NB_A405	Électricien	1	
NB_A406	Entreprise générale du bâtiment	1	
NB_A501	Coiffure	1	
NB_A502	Vétérinaire	1	
NB_A503	Agence de travail temporaire	1	
NB_A504	Restaurant	1	
NB_A505	Agence immobilière	1	
NB_A506	Blanchisserie teinturerie	1	
NB_A507	Soins de beauté	1	
NB_B101	Hypermarché	1	
NB_B102	Supermarché	1	
NB_B103	Grande surface de bricolage	1	
NB_B201	Supérette	1	
NB_B202	Epicerie	1	
NB_B203	Boulangerie	1	
NB_B204	Boucherie charcuterie	1	
NB_B205	Produits surgelés	1	
NB_B206	Poissonnerie	1	
NB_B301	Librairie papeterie journaux	1	
NB_B302	Magasin de vétements	1	
NB_B303	Magasin d'équipements du foyer	1	
NB_B304	Magasin de chaussures	1	
NB_B305	Magasin d'électroménager et de matériel audio-vidéo	1	
NB_B306	Magasin de meubles	1	
NB_B307	Magasin d'articles de sports et de loisirs	1	
NB_B308	Magasin de revêtements murs et sols	1	
NB_B309	Droguerie quincaillerie bricolage	1	
NB_B310	Parfumerie	1	
NB_B311	Horlogerie Bijouterie	1	
NB_B312	Fleuriste	1	
NB_B313	Magasin d'optique	1	
NB_B315	Magasin de matériel médical et orthopédique	1	
NB_B316	Station service	1	
NB_D201	Médecin omnipraticien	1	
NB_D202	Spécialiste en cardiologie	1	
NB_D203	Spécialiste en dermatologie vénérologie	1	
NB_D204	Spécialiste en gynécologie médicale	1	
NB_D205	Spécialiste en gynécologie obstétrique	1	
NB_D206	Spécialiste en gastro-entérologie hépatologie	1	
NB_D207	Spécialiste en psychiatrie	1	
NB_D208	Spécialiste en ophtalmologie	1	
NB_D209	Spécialiste en oto-rhino-laryngologie	1	
NB_D210	Spécialiste en pédiatrie	1	
NB_D211	Spécialiste en pneumologie	1	
NB_D212	Spécialiste en radiodiagnostic et imagerie médicale	1	
NB_D213	Spécialiste en stomatologie	1	
NB_D221	Chirurgien dentiste	1	
NB_D231	Sage-femme	1	
NB_D232	Infirmier	1	
NB_D233	Masseur kinésithérapeute	1	
NB_D235	Orthophoniste	1	
NB_D236	Orthoptiste	1	
NB_D237	Pédicure-podologue	1	
NB_D238	Audio prothésiste	1	
NB_D239	Ergothérapeute	1	
NB_D240	Psychomotricien	1	
NB_D242	Diététicien	1	
NB_D243	Psychologue	1	
NB_D401	Personnes âgées : hébergement	1	
NB_D402	Personnes âgées : soins à domicile	1	
NB_D403	Personnes âgées : services d'aide	1	
NB_D404	Personnes âgées : foyer restaurant	1	
NB_D405	Personnes âgées : services de repas à domicile	1	
NB_D502	Établissement d'accueil du jeune enfant	1	
NB_D601	Enfants handicapés : hébergement	1	
NB_D602	Enfants handicapés : services à domicile ou ambulatoires	1	
NB_D603	Adultes handicapés : hébergement	1	
NB_D604	Adultes handicapés : services d'aides	1	
NB_D605	Travail protégé	1	
NB_D606	Adultes handicapés : services de soins à domicile	1	
NB_D701	Aide sociale à l'enfance : hébergement	1	
NB_D702	Aide sociale à l'enfance : action éducative	1	
NB_D703	CHRS : centre d'hébergement et de réadaptation sociale	1	
NB_D704	Centre provisoire d'hébergement	1	
NB_D705	Centre accueil demandeur d'asile	1	
NB_D709	Autres établissements pour adultes et familles en difficulté	1	
NB_E101	Taxi	1	
NB_E102	Aéroport	1	
NB_E103	Gare avec desserte train à grande vitesse (TAGV)	1	
NB_E106	Gare sans desserte train à grande vitesse (TAGV)	1	
NB_F101	Bassin de natation	1	
NB_F101_NB_AIREJEU	Bassin de natation - nombre de bassins de natation, sportive et/ou ludique	2	['NB_F101']
NB_F101_NB_COU	Bassin de natation avec au moins un bassin couvert	2	['NB_F101']
NB_F101_NB_ECL	Bassin de natation avec au moins un bassin éclairé	2	['NB_F101']
NB_F102	Boulodrome	1	
NB_F102_NB_AIREJEU	Boulodrome - nombre de terrains	2	['NB_F102']
NB_F102_NB_COU	Boulodrome avec au moins un terrain couvert	2	['NB_F102']
NB_F102_NB_ECL	Boulodrome avec au moins un terrain éclairé	2	['NB_F102']
NB_F103	Tennis	1	
NB_F103_NB_AIREJEU	Tennis - nombre de courts	2	['NB_F103']
NB_F103_NB_COU	Tennis avec au moins un court couvert	2	['NB_F103']
NB_F103_NB_ECL	Tennis avec au moins un court éclairé	2	['NB_F103']
NB_F104	Équipement de cyclisme	1	
NB_F104_NB_AIREJEU	Équipement de cyclisme - nombre de pistes	2	['NB_F104']
NB_F104_NB_COU	Équipement de cyclisme avec au moins une piste couverte	2	['NB_F104']
NB_F104_NB_ECL	Équipement de cyclisme avec au moins une piste éclairée	2	['NB_F104']
NB_F105	Domaine skiable	1	
NB_F105_NB_AIREJEU	Domaine skiable - nombre de pistes	2	['NB_F105']
NB_F105_NB_COU	Domaine skiable avec au moins une piste couverte	2	['NB_F105']
NB_F105_NB_ECL	Domaine skiable avec au moins une piste éclairée	2	['NB_F105']
NB_F106	Centre équestre	1	
NB_F106_NB_AIREJEU	Centre équestre - nombre de carrières, manèges	2	['NB_F106']
NB_F106_NB_COU	Centre équestre avec au moins un équipement couvert	2	['NB_F106']
NB_F106_NB_ECL	Centre équestre avec au moins un équipement éclairé	2	['NB_F106']
NB_F107	Athlétisme	1	
NB_F107_NB_AIREJEU	Athlétisme - nombre d'aires de pratique	2	['NB_F107']
NB_F107_NB_COU	Athlétisme avec au moins une aire de pratique couverte	2	['NB_F107']
NB_F107_NB_ECL	Athlétisme avec au moins une aire de pratique éclairée	2	['NB_F107']
NB_F108	Terrain de golf	1	
NB_F108_NB_AIREJEU	Terrain de golf - nombre d'aires de pratique	2	['NB_F108']
NB_F108_NB_COU	Terrain de golf avec au moins une aire de pratique couverte	2	['NB_F108']
NB_F108_NB_ECL	Terrain de golf avec au moins une aire de pratique éclairée	2	['NB_F108']
NB_F109	Parcours sportif/santé	1	
NB_F109_NB_AIREJEU	Parcours sportif/santé - nombre de parcours	2	['NB_F109']
NB_F109_NB_COU	Parcours sportif/santé avec au moins un parcours couvert	2	['NB_F109']
NB_F109_NB_ECL	Parcours sportif/santé avec au moins un parcours éclairé	2	['NB_F109']
NB_F110	Sports de glace	1	
NB_F110_NB_AIREJEU	Sports de glace - nombre d'aires de pratique	2	['NB_F110']
NB_F110_NB_COU	Sports de glace avec au moins une aire de pratique couverte	2	['NB_F110']
NB_F110_NB_ECL	Sports de glace avec au moins une aire de pratique éclairée	2	['NB_F110']
NB_F111	Plateaux et terrains de jeux extérieurs	1	
NB_F111_NB_AIREJEU	Plateaux et terrains de jeux extérieurs - nombre d'aires de pratique	2	['NB_F111']
NB_F111_NB_COU	Plateaux et terrains de jeux extérieurs avec au moins une aire de pratique couverte	2	['NB_F111']
NB_F111_NB_ECL	Plateaux et terrains de jeux extérieurs avec au moins une aire de pratique éclairée	2	['NB_F111']
NB_F112	Salles spécialisées	1	
NB_F112_NB_AIREJEU	Salles spécialisées - nombre d'aires de pratique	2	['NB_F112']
NB_F112_NB_COU	Salles spécialisées avec au moins une aire de pratique couverte	2	['NB_F112']
NB_F112_NB_ECL	Salles spécialisées avec au moins une aire de pratique éclairée	2	['NB_F112']
NB_F113	Terrains de grands jeux	1	
NB_F113_NB_AIREJEU	Terrains de grands jeux - nombre de terrains	2	['NB_F113']
NB_F113_NB_COU	Terrains de grands jeux avec au moins un terrain couvert	2	['NB_F113']
NB_F113_NB_ECL	Terrains de grands jeux avec au moins un terrain éclairé	2	['NB_F113']
NB_F114	Salles de combat	1	
NB_F114_NB_AIREJEU	Salles de combat - nombre d'aires de pratique	2	['NB_F114']
NB_F114_NB_COU	Salles de combat avec au moins une aire de pratique couverte	2	['NB_F114']
NB_F114_NB_ECL	Salles de combat avec au moins une aire de pratique éclairée	2	['NB_F114']
NB_F116	Salles non spécialisées	1	
NB_F116_NB_AIREJEU	Salles non spécialisées - nombre d'équipements où s'exerce au moins une activité physique et/ou sportive	2	['NB_F116']
NB_F116_NB_COU	Salles non spécialisées avec au moins un équipement couvert	2	['NB_F116']
NB_F116_NB_ECL	Salles non spécialisées avec au moins un équipement éclairé	2	['NB_F116']
NB_F117	Roller-Skate-Vélo bicross ou freestyle	1	
NB_F117_NB_AIREJEU	Équipement de cyclisme avec au moins une piste éclairée	2	['NB_F117']
NB_F117_NB_COU	Roller-Skate-Vélo bicross ou freestyle avec au moins un équipement couvert	2	['NB_F117']
NB_F117_NB_ECL	Roller-Skate-Vélo bicross ou freestyle avec au moins un équipement éclairé	2	['NB_F117']
NB_F118	Sports nautiques	1	
NB_F118_NB_AIREJEU	Sports nautiques - nombre d'aires de pratique	2	['NB_F118']
NB_F118_NB_COU	Sports nautiques avec au moins une aire de pratique couverte	2	['NB_F118']
NB_F118_NB_ECL	Sports nautiques avec au moins une aire de pratique éclairée	2	['NB_F118']
NB_F119	Bowling	1	
NB_F119_NB_AIREJEU	Bowling - nombre d'aires de jeu	2	['NB_F119']
NB_F119_NB_COU	Bowling avec au moins une aire de jeu couverte	2	['NB_F119']
NB_F119_NB_ECL	Bowling avec au moins une aire de jeu éclairée	2	['NB_F119']
NB_F120	Salles de remise en forme	1	
NB_F120_NB_AIREJEU	Salles de remise en forme - nombre d'aires de pratique	2	['NB_F120']
NB_F120_NB_COU	Salles de remise en forme avec au moins une aire de pratique couverte	2	['NB_F120']
NB_F120_NB_ECL	Salles de remise en forme avec au moins une aire de pratique éclairée	2	['NB_F120']
NB_F121	Salles multisports (gymnase)	1	
NB_F121_NB_AIREJEU	Salles multisports (gymnase) - nombre d'aires de pratique	2	['NB_F121']
NB_F121_NB_COU	Salles multisports (gymnase) avec au moins une aire de pratique couverte	2	['NB_F121']
NB_F121_NB_ECL	Salles multisports (gymnase) avec au moins une aire de pratique éclairée	2	['NB_F121']
NB_F201	Baignade aménagée	1	
NB_F201_NB_AIREJEU	Baignade aménagée - nombre d'aires de pratique	2	['NB_F201']
NB_F202	Port de plaisance - Mouillage	2	['NB_F201']
NB_F202_NB_AIREJEU	Port de plaisance - Mouillage - nombre de ports, de zones	2	['NB_F201']
NB_F203	Boucle de randonnée	1	
NB_F203_NB_AIREJEU	Boucle de randonnée - nombre de circuits	2	['NB_F203']
NB_F302	Théâtre	1	
NB_F302_NB_SALLES	Nombre de salles dans le théâtre	2	['NB_F302']
NB_F303	Cinéma	1	
NB_F303_NB_SALLES	Nombre de salles dans le cinéma	2	['NB_F303']
NB_F304	Musée	1	
NB_F305	Conservatoire	1	
NB_G101	Agence de voyage	1	
NB_G102	Hôtel	1	
NB_G103	Camping	1	
NB_G104	Information Touristique	1	
note	Note de précaution (voir onglet seuils)	1	
P14_ACT1524	Actifs 15-24 ans en 2014 (princ)	3	['P14_POP1524']
P14_ACT1564	Actifs 15-64 ans en 2014 (compl)	2	['P14_POP']
P14_ACT2554	Actifs 25-54 ans en 2014 (princ)	3	['P14_POP2554']
P14_ACT5564	Actifs 55-64 ans en 2014 (princ)	3	['P14_POP5564']
P14_ACTOCC1524	Actifs occupés 15-24 ans en 2014 (princ)	4	['P14_ACT1524']
P14_ACTOCC1564	Actifs occupés 15-64 ans en 2014 (compl)	3	['P14_ACT1564']
P14_ACTOCC15P	Actifs occupés 15 ans ou plus en 2014 (princ)	2	['P14_POP']
P14_ACTOCC15P_ILT1	Actif occ 15 ans ou plus travaille commune résidence en 2014 (princ)	3	['P14_ACTOCC15P']
P14_ACTOCC15P_ILT2	Actif occ 15 ans ou plus travaille autre commune même dépt résidence en 2014 (princ)	3	['P14_ACTOCC15P']
P14_ACTOCC15P_ILT2P	Actif occ 15 ans ou plus travaille autre commune que commune résidence en 2014 (princ)	3	['P14_ACTOCC15P']
P14_ACTOCC15P_ILT3	Actif occ 15 ans ou plus travaille autre dépt même région résidence en 2014 (princ)	3	['P14_ACTOCC15P']
P14_ACTOCC15P_ILT4	Actif occ 15 ans ou plus travaille autre région en métropole en 2014 (princ)	3	['P14_ACTOCC15P']
P14_ACTOCC15P_ILT5	Actif occ 15 ans ou plus travaille autre région hors métropole en 2014 (princ)	3	['P14_ACTOCC15P']
P14_ACTOCC15P_TP	Actifs occ 15 ans ou plus TP en 2014 (princ)	3	['P14_ACTOCC15P']
P14_ACTOCC2554	Actifs occupés 25-54 ans en 2014 (princ)	4	['P14_ACT2554']
P14_ACTOCC5564	Actifs occupés 55-64 ans en 2014 (princ)	4	['P14_ACT5564']
P14_AINACT1564	Autres inactifs 15-64 ans en 2014 (princ)	2	['P14_POP']
P14_ANEM_RP	Anc tot Emméngt Rés princ (années) en 2014 (princ)	2	['P14_LOG']
P14_ANEM_RP_GRAT	Anc tot Emméngt Rés princ occ gratuit (années) en 2014 (princ)	3	['P14_ANEM_RP']
P14_ANEM_RP_LOC	Anc tot Emméngt Rés princ occ par Locataires (années) en 2014 (princ)	3	['P14_ANEM_RP']
P14_ANEM_RP_LOCHLMV	Anc tot Emméngt Rés princ HLM louées vides (années) en 2014 (princ)	3	['P14_ANEM_RP']
P14_ANEM_RP_PROP	Anc tot Emméngt Rés princ occ par Propriétaires (années) en 2014 (princ)	3	['P14_ANEM_RP']
P14_APPART	Appartements en 2014 (princ)	2	['P14_LOG']
P14_CHOM1524	Chômeurs 15-24 ans en 2014 (princ)	3	['P14_POP1524']
P14_CHOM1564	Chômeurs 15-64 ans en 2014 (princ)	2	['P14_POP']
P14_CHOM2554	Chômeurs 25-54 ans en 2014 (princ)	3	['P14_POP2554']
P14_CHOM5564	Chômeurs 55-64 ans en 2014 (princ)	3	['P14_POP5564']
P14_ETUD1564	Elèv. Etud. Stag. non rémunérés 15-64 ans en 2014 (princ)	2	['P14_POP']
P14_F0014	Pop Femmes 0-14 ans en 2014 (princ)	3	['P14_POPF']
P14_F0019	Pop Femmes 0-19 ans en 2014 (princ)	3	['P14_POPF']
P14_F1524	Pop 15-24 ans Femmes en 2014 (princ)	3	['P14_POPF']
P14_F1564	Pop 15-64 ans Femmes en 2014 (princ)	3	['P14_POPF']
P14_F2064	Pop Femmes 20-64 ans en 2014 (princ)	3	['P14_POPF']
P14_F2554	Pop 25-54 ans Femmes en 2014 (princ)	3	['P14_POPF']
P14_F4559	Pop Femmes 45-59 ans en 2014 (princ)	3	['P14_POPF']
P14_F5564	Pop 55-64 ans Femmes en 2014 (princ)	3	['P14_POPF']
P14_F6074	Pop Femmes 60-74 ans en 2014 (princ)	3	['P14_POPF']
P14_F65P	Pop Femmes 65 ans ou plus en 2014 (princ)	3	['P14_POPF']
P14_F75P	Pop Femmes 75 ans ou plus en 2014 (princ)	3	['P14_POPF']
P14_FACT1524	Actifs 15-24 ans Femmes en 2014 (princ)	4	['P14_F1524']
P14_FACT1564	Actifs 15-64 ans Femmes en 2014 (princ)	4	['P14_F1564']
P14_FACT2554	Actifs 25-54 ans Femmes en 2014 (princ)	4	['P14_F2554']
P14_FACT5564	Actifs 55-64 ans Femmes en 2014 (princ)	4	['P14_F5564']
P14_FACTOCC1524	Actifs occupés 15-24 ans Femmes en 2014 (princ)	5	['P14_FACT1524']
P14_FACTOCC1564	Actifs occupés 15-64 ans Femmes en 2014 (princ)	5	['P14_FACT1564']
P14_FACTOCC15P	Actifs occupés 15 ans ou plus Femmes en 2014 (princ)	4	['C14_F15P']
P14_FACTOCC2554	Actifs occupés 25-54 ans Femmes en 2014 (princ)	5	['P14_FACT2554']
P14_FACTOCC5564	Actifs occupés 55-64 ans Femmes en 2014 (princ)	5	['P14_FACT5564']
P14_FAINACT1564	Autres inactifs 15-64 ans Femmes en 2014 (princ)	4	['P14_F1564']
P14_FCHOM1564	Chômeurs 15-64 ans Femmes en 2014 (princ)	4	['P14_F1564']
P14_FETUD1564	Elèv. Etud. Stag. non rémunérés 15-64 ans Femmes en 2014 (princ)	4	['P14_F1564']
P14_FINACT1564	Inactifs 15-64 ans Femmes en 2014 (princ)	4	['P14_F1564']
P14_FNSAL15P	Non-salariés 15 ans ou plus Femmes en 2014 (princ)	4	['C14_F15P']
P14_FNSCOL15P	Femmes 15 ans ou plus non scolarisées en 2014 (princ)	4	['P14_F15P']
P14_FNSCOL15P_BAC	Femmes 15 ans ou plus non scol. BAC en 2014 (princ)	5	['P14_FNSCOL15P']
P14_FNSCOL15P_CAPBEP	Femmes 15 ans ou plus non scol. CAP-BEP en 2014 (princ)	5	['P14_FNSCOL15P']
P14_FNSCOL15P_DIPLMIN	Femmes 15 ans ou plus non scol. Sans diplôme ou BEPC, brevet des collèges, DNB en 2014 (princ)	5	['P14_FNSCOL15P']
P14_FNSCOL15P_SUP	Femmes 15 ans ou plus non scol. Enseignement sup en 2014 (princ)	5	['P14_FNSCOL15P']
P14_FRETR1564	Retraités Préretraités 15-64 ans Femmes en 2014 (princ)	4	['P14_F1564']
P14_FSAL15P	Salariés 15 ans ou plus Femmes en 2014 (princ)	4	['C14_F15P']
P14_FSAL15P_TP	Salariés 15 ans ou plus TP Femmes en 2014 (princ)	5	['P14_FSAL15P']
P14_H0014	Pop Hommes 0-14 ans en 2014 (princ)	3	['P14_POPH']
P14_H0019	Pop Hommes 0-19 ans en 2014 (princ)	3	['P14_POPH']
P14_H1524	Pop 15-24 ans Hommes en 2014 (princ)	3	['P14_POPH']
P14_H1529	Pop Hommes 15-29 ans en 2014 (princ)	3	['P14_POPH']
P14_H1564	Pop 15-64 ans Hommes en 2014 (princ)	3	['P14_POPH']
P14_H2064	Pop Hommes 20-64 ans en 2014 (princ)	3	['P14_POPH']
P14_H2554	Pop 25-54 ans Hommes en 2014 (princ)	3	['P14_POPH']
P14_H3044	Pop Hommes 30-44 ans en 2014 (princ)	3	['P14_POPH']
P14_H4559	Pop Hommes 45-59 ans en 2014 (princ)	3	['P14_POPH']
P14_H5564	Pop 55-64 ans Hommes en 2014 (princ)	3	['P14_POPH']
P14_H6074	Pop Hommes 60-74 ans en 2014 (princ)	3	['P14_POPH']
P14_H65P	Pop Hommes 65 ans ou plus en 2014 (princ)	3	['P14_POPH']
P14_H75P	Pop Hommes 75 ans ou plus en 2014 (princ)	3	['P14_POPH']
P14_HACT1524	Actifs 15-24 ans Hommes en 2014 (princ)	4	['P14_H1524']
P14_HACT1564	Actifs 15-64 ans Hommes en 2014 (princ)	4	['P14_H1564']
P14_HACT2554	Actifs 25-54 ans Hommes en 2014 (princ)	4	['P14_H2554']
P14_HACT5564	Actifs 55-64 ans Hommes en 2014 (princ)	4	['P14_H5564']
P14_HACTOCC1524	Actifs occupés 15-24 ans Hommes en 2014 (princ)	5	['P14_HACT1524']
P14_HACTOCC1564	Actifs occupés 15-64 ans Hommes en 2014 (princ)	5	['P14_HACT1564']
P14_HACTOCC15P	Actifs occupés 15 ans ou plus Hommes en 2014 (princ)	4	['C14_F15P']
P14_HACTOCC2554	Actifs occupés 25-54 ans Hommes en 2014 (princ)	5	['P14_HACT2554']
P14_HACTOCC5564	Actifs occupés 55-64 ans Hommes en 2014 (princ)	5	['P14_HACT5564']
P14_HAINACT1564	Autres inactifs 15-64 ans Hommes en 2014 (princ)	4	['P14_H1564']
P14_HCHOM1564	Chômeurs 15-64 ans Hommes en 2014 (princ)	4	['P14_H1564']
P14_HETUD1564	Elèv. Etud. Stag. non rémunérés 15-64 ans Hommes en 2014 (princ)	4	['P14_H1564']
P14_HINACT1564	Inactifs 15-64 ans Hommes en 2014 (princ)	4	['P14_H1564']
P14_HNSAL15P	Non-salariés 15 ans ou plus Hommes en 2014 (princ)	4	['C14_F15P']
P14_HNSCOL15P	Hommes 15 ans ou plus non scolarisés en 2014 (princ)	4	['C14_F15P']
P14_HNSCOL15P_BAC	Hommes 15 ans ou plus non scol. BAC en 2014 (princ)	5	['P14_HNSCOL15P_BAC']
P14_HNSCOL15P_CAPBEP	Hommes 15 ans ou plus non scol. CAP-BEP en 2014 (princ)	5	['P14_HNSCOL15P_BAC']
P14_HNSCOL15P_DIPLMIN	Hommes 15 ans ou plus non scol. Sans diplôme ou BEPC, brevet des collèges, DNB en 2014 (princ)	5	['P14_HNSCOL15P_BAC']
P14_HNSCOL15P_SUP	Hommes 15 ans ou plus non scol. Enseignement sup en 2014 (princ)	5	['P14_HNSCOL15P_BAC']
P14_HRETR1564	Retraités Préretraités 15-64 ans Hommes en 2014 (princ)	4	['P14_H1564']
P14_HSAL15P	Salariés 15 ans ou plus Hommes en 2014 (princ)	4	['C14_F15P']
P14_HSAL15P_TP	Salariés 15 ans ou plus TP Hommes en 2014 (princ)	5	['P14_HSAL15P']
P14_INACT1564	Inactifs 15-64 ans en 2014 (princ)	2	['P14_POP']
P14_LOG	Logements en 2014 (princ)	1	
P14_LOGVAC	Logements vacants en 2014 (princ)	2	['P14_LOG']
P14_MAISON	Maisons en 2014 (princ)	2	['P14_LOG']
P14_MEN	Ménages en 2014 (princ)	2	['P14_POP']
P14_MEN_ANEM0002	Ménages emménagés moins 2 ans en 2014 (princ)	3	['P14_MEN']
P14_MEN_ANEM0204	Ménages emménagés entre 2-4 ans en 2014 (princ)	3	['P14_MEN']
P14_MEN_ANEM0509	Ménages emménagés entre 5-9 ans en 2014 (princ)	3	['P14_MEN']
P14_MEN_ANEM10P	Ménages emménagés depuis 10 ans ou plus en 2014 (princ)	3	['P14_MEN']
P14_NBPI_RP	Pièces rés princ en 2014 (princ)	3	['P14_RP']
P14_NBPI_RP_ANEM0002	Pièces Rés princ Mén. emménagés moins 2 ans en 2014 (princ)	4	['P14_NBPI_RP']
P14_NBPI_RP_ANEM0204	Pièces Rés princ Mén. emménagés entre 2-4 ans en 2014 (princ)	4	['P14_NBPI_RP']
P14_NBPI_RP_ANEM0509	Pièces Rés princ Mén. emménagés entre 5-9 ans en 2014 (princ)	4	['P14_NBPI_RP']
P14_NBPI_RP_ANEM10P	Pièces Rés princ Mén. emménagés depuis 10 ans ou plus en 2014 (princ)	4	['P14_NBPI_RP']
P14_NBPI_RPAPPART	Pièces rés princ type appartement en 2014 (princ)	4	['P14_NBPI_RP']
P14_NBPI_RPMAISON	Pièces rés princ type maison en 2014 (princ)	4	['P14_NBPI_RP']
P14_NPER_RP	Personnes Rés princ en 2014 (princ)	2	['P14_POP']
P14_NPER_RP_GRAT	Pers Rés princ occupées gratuit en 2014 (princ)	3	['P14_NPER_RP']
P14_NPER_RP_LOC	Pers Rés princ occupées Locataires en 2014 (princ)	3	['P14_NPER_RP']
P14_NPER_RP_LOCHLMV	Pers Rés princ HLM louées vides en 2014 (princ)	3	['P14_NPER_RP']
P14_NPER_RP_PROP	Pers Rés princ occupées Propriétaires en 2014 (princ)	3	['P14_NPER_RP']
P14_NSAL15P	Non-salariés 15 ans ou plus en 2014 (princ)	3	['P14_POP15P']
P14_NSAL15P_AIDFAM	Non-salariés 15 ans ou plus Aides familiaux en 2014 (princ)	4	['P14_NSAL15P']
P14_NSAL15P_EMPLOY	Non-salariés 15 ans ou plus Employeurs en 2014 (princ)	4	['P14_NSAL15P']
P14_NSAL15P_INDEP	Non-salariés 15 ans ou plus Indépendants en 2014 (princ)	4	['P14_NSAL15P']
P14_NSAL15P_TP	Non-salariés 15 ans ou plus TP en 2014 (princ)	4	['P14_NSAL15P']
P14_NSCOL15P	Pop 15 ans ou plus non scolarisée en 2014 (princ)	3	['P14_POP15P']
P14_NSCOL15P_BAC	Pop 15 ans ou plus non scol. BAC en 2014 (princ)	4	['P14_NSCOL15P']
P14_NSCOL15P_CAPBEP	Pop 15 ans ou plus non scol. CAP-BEP en 2014 (princ)	4	['P14_NSCOL15P']
P14_NSCOL15P_DIPLMIN	Pop 15 ans ou plus non scol. Sans diplôme ou BEPC, brevet des collèges, DNB en 2014 (princ)	4	['P14_NSCOL15P']
P14_NSCOL15P_SUP	Pop 15 ans ou plus non scol. Enseignement sup en 2014 (princ)	4	['P14_NSCOL15P']
P14_PHORMEN	Pop hors ménages en 2014 (princ)	2	['P14_POP']
P14_PMEN	Pop Ménages en 2014 (compl)	2	['P14_POP']
P14_PMEN_ANEM0002	Pop mén emménagés moins 2 ans en 2014 (princ)	3	['P14_PMEN']
P14_PMEN_ANEM0204	Pop mén emménagés entre 2-4 ans en 2014 (princ)	3	['P14_PMEN']
P14_PMEN_ANEM0509	Pop mén emménagés entre 5-9 ans en 2014 (princ)	3	['P14_PMEN']
P14_PMEN_ANEM10P	Pop mén emménagés depuis 10 ans ou plus en 2014 (princ)	3	['P14_PMEN']
P14_POP	Population en 2014 (princ)	1	
P14_POP_ETR	Pop Etrangers en 2014 (princ)	2	['P14_POP']
P14_POP_FR	Pop Français en 2014 (princ)	2	['P14_POP']
P14_POP_IMM	Pop Immigrés en 2014 (princ)	2	['P14_POP']
P14_POP0002	Pop 0-2 ans en 2014 (princ)	2	['P14_POP']
P14_POP0014	Pop 0-14 ans en 2014 (princ)	2	['P14_POP']
P14_POP0019	Pop 0-19 ans en 2014 (princ)	2	['P14_POP']
P14_POP0205	Pop 2-5 ans en 2014 (princ)	2	['P14_POP']
P14_POP0305	Pop 3-5 ans en 2014 (princ)	2	['P14_POP']
P14_POP0610	Pop 6-10 ans en 2014 (princ)	2	['P14_POP']
P14_POP1114	Pop 11-14 ans en 2014 (princ)	2	['P14_POP']
P14_POP1117	Pop 11-17 ans en 2014 (princ)	2	['P14_POP']
P14_POP1517	Pop 15-17 ans en 2014 (princ)	2	['P14_POP']
P14_POP1524	Pop 15-24 ans en 2014 (princ)	2	['P14_POP']
P14_POP1524_PSEUL	Pop 15-24 ans vivant seule en 2014 (princ)	3	['P14_POP1524']
P14_POP1529	Pop 15-29 ans en 2014 (princ)	2	['P14_POP']
P14_POP15P	Pop 15 ans ou plus en 2014 (princ)	2	['P14_POP']
P14_POP15P_MARIEE	Pop 15 ans ou plus Mariée en 2014 (princ)	3	['P14_POP15P']
P14_POP15P_NONMARIEE	Pop 15 ans ou plus Non mariée en 2014 (princ)	3	['P14_POP15P']
P14_POP15P_PSEUL	Pop 15 ans ou plus ans vivant seule en 2014 (princ)	3	['P14_POP15P']
P14_POP1824	Pop 18-24 ans en 2014 (princ)	2	['P14_POP']
P14_POP2064	Pop 20-64 ans en 2014 (princ)	2	['P14_POP']
P14_POP2529	Pop 25-29 ans en 2014 (princ)	2	['P14_POP']
P14_POP2539	Pop 25-39 ans en 2014 (princ)	2	['P14_POP']
P14_POP2554	Pop 25-54 ans en 2014 (princ)	2	['P14_POP']
P14_POP2554_PSEUL	Pop 25-54 ans vivant seule en 2014 (princ)	3	['P14_POP2554']
P14_POP3044	Pop 30-44 ans en 2014 (princ)	2	['P14_POP']
P14_POP30P	Pop 30 ans ou plus en 2014 (princ)	2	['P14_POP']
P14_POP4054	Pop 40-54 ans en 2014 (princ)	2	['P14_POP']
P14_POP4559	Pop 45-59 ans en 2014 (princ)	2	['P14_POP']
P14_POP5564	Pop 55-64 ans en 2014 (princ)	2	['P14_POP']
P14_POP5579	Pop 55-79 ans en 2014 (princ)	2	['P14_POP']
P14_POP5579_PSEUL	Pop 55-79 ans vivant seule en 2014 (princ)	3	['P14_POP5579']
P14_POP6074	Pop 60-74 ans en 2014 (princ)	2	['P14_POP']
P14_POP6579	Pop 65-79 ans en 2014 (princ)	2	['P14_POP']
P14_POP65P	Pop 65 ans ou plus en 2014 (princ)	2	['P14_POP']
P14_POP75P	Pop 75 ans ou plus en 2014 (princ)	2	['P14_POP']
P14_POP80P	Pop 80 ans ou plus en 2014 (princ)	2	['P14_POP']
P14_POP80P_PSEUL	Pop 80 ans ou plus vivant seule en 2014 (princ)	3	['P14_POP80P']
P14_POPF	Pop Femmes en 2014 (princ)	2	['P14_POP']
P14_POPH	Pop Hommes en 2014 (princ)	2	['P14_POP']
P14_POPMEN1524	Pop mén 15-24 ans en 2014 (princ)	3	['P14_POP1524']
P14_POPMEN15P	Pop mén 15 ans ou plus en 2014 (princ)	3	['P14_POP15P']
P14_POPMEN2554	Pop mén 25-54 ans en 2014 (princ)	3	['P14_POP2554']
P14_POPMEN5579	Pop mén 55-79 ans en 2014 (princ)	3	['P14_POP5579']
P14_POPMEN80P	Pop mén 80 ans ou plus en 2014 (princ)	3	['P14_POP80P']
P14_RETR1564	Retraités Préretraités 15-64 ans en 2014 (princ)	3	['P14_POP1564']
P14_RP	Résidences principales en 2014 (princ)	2	['P14_LOG']
P14_RP_100120M2	Rés princ de 100 à moins de 120 m2 en 2014 (princ)	3	['P14_RP']
P14_RP_120M2P	Rés princ de 120 m2 ou plus en 2014 (princ)	3	['P14_RP']
P14_RP_1P	Rés princ 1 pièce en 2014 (princ)	3	['P14_RP']
P14_RP_2P	Rés princ 2 pièces en 2014 (princ)	3	['P14_RP']
P14_RP_3040M2	Rés princ de 30 à moins de 40 m2 en 2014 (princ)	3	['P14_RP']
P14_RP_3P	Rés princ 3 pièces en 2014 (princ)	3	['P14_RP']
P14_RP_4060M2	Rés princ de 40 à moins de 60 m2 en 2014 (princ)	3	['P14_RP']
P14_RP_4P	Rés princ 4 pièces en 2014 (princ)	3	['P14_RP']
P14_RP_5PP	Rés princ 5 pièces ou plus en 2014 (princ)	3	['P14_RP']
P14_RP_6080M2	Rés princ de 60 à moins de 80 m2 en 2014 (princ)	3	['P14_RP']
P14_RP_80100M2	Rés princ de 80 à moins de 100 m2 en 2014 (princ)	3	['P14_RP']
P14_RP_ACH05	Rés princ 1991 à 2005 en 2014 (princ)	3	['P14_RP']
P14_RP_ACH11	Rés princ 2006 à 2011 en 2014 (princ)	3	['P14_RP']
P14_RP_ACH19	Rés princ avt 1919 en 2014 (princ)	3	['P14_RP']
P14_RP_ACH45	Rés princ 1919 à 1945 en 2014 (princ)	3	['P14_RP']
P14_RP_ACH70	Rés princ 1946 à 1970 en 2014 (princ)	3	['P14_RP']
P14_RP_ACH90	Rés princ 1971 à 1990 en 2014 (princ)	3	['P14_RP']
P14_RP_ACHTOT	Rés princ avt 2012 en 2014 (princ)	3	['P14_RP']
P14_RP_BDWC	Rés princ avec Bain/Douche WC (DOM) en 2014 (princ)	3	['P14_RP']
P14_RP_CCCOLL	Rés princ Chauffage Central Collectif (MET) en 2014 (princ)	3	['P14_RP']
P14_RP_CCIND	Rés princ Chauffage Central Individuel (MET) en 2014 (princ)	3	['P14_RP']
P14_RP_CHOS	Rés princ avec chauffe-eau solaire (DOM) en 2014 (princ)	3	['P14_RP']
P14_RP_CINDELEC	Rés princ Chauffage Individuel Electrique (MET) en 2014 (princ)	3	['P14_RP']
P14_RP_CLIM	Rés princ avec pièce climatisée (DOM) en 2014 (princ)	3	['P14_RP']
P14_RP_EAUCH	Rés princ avec eau chaude (DOM) en 2014 (princ)	3	['P14_RP']
P14_RP_ELEC	Rés princ avec électricité (DOM) en 2014 (princ)	3	['P14_RP']
P14_RP_GARL	Ménages au moins un parking en 2014 (princ)	3	['P14_RP']
P14_RP_GRAT	Rés princ logé gratuit en 2014 (princ)	3	['P14_RP']
P14_RP_LOC	Rés princ occupées Locataires en 2014 (princ)	3	['P14_RP']
P14_RP_LOCHLMV	Rés princ HLM louée vide en 2014 (princ)	4	['P14_RP_LOC']
P14_RP_M30M2	Rés princ de moins de 30 m2 en 2014 (princ)	3	['P14_RP']
P14_RP_PROP	Rés princ occupées Propriétaires en 2014 (princ)	3	['P14_RP']
P14_RP_SDB	Rés princ SDB baignoire douche (MET) en 2014 (princ)	3	['P14_RP']
P14_RP_TTEGOU	Rés princ avec tout à l'égout (DOM) en 2014 (princ)	3	['P14_RP']
P14_RP_VOIT1	Ménages une voiture en 2014 (princ)	3	['P14_MEN']
P14_RP_VOIT1P	Ménages au moins une voiture en 2014 (princ)	3	['P14_MEN']
P14_RP_VOIT2P	Ménages deux voitures ou plus en 2014 (princ)	3	['P14_MEN']
P14_RPAPPART	Rés princ type appartement en 2014 (princ)	3	['P14_RP']
P14_RPAPPART_ACH05	Rés princ Type appart 1991 à 2005 en 2014 (princ)	4	['P14_RP_ACH05']
P14_RPAPPART_ACH11	Rés princ Type appart 2006 à 2011 en 2014 (princ)	4	['P14_RP_ACH11']
P14_RPAPPART_ACH19	Rés princ Type appart avt 1919 en 2014 (princ)	4	['P14_RP_ACH19']
P14_RPAPPART_ACH45	Rés princ Type appart 1919 à 1945 en 2014 (princ)	4	['P14_RP_ACH45']
P14_RPAPPART_ACH70	Rés princ Type appart 1946 à 1970 en 2014 (princ)	4	['P14_RP_ACH70']
P14_RPAPPART_ACH90	Rés princ Type appart 1971 à 1990 en 2014 (princ)	4	['P14_RP_ACH90']
P14_RPAPPART_ACHTOT	Rés princ Type appart avt 2012 en 2014 (princ)	4	['P14_RPAPPART']
P14_RPMAISON	Rés princ type maison en 2014 (princ)	3	['P14_RP']
P14_RPMAISON_ACH05	Rés princ Type maison 1991 à 2005 en 2014 (princ)	4	['P14_RP_ACH05']
P14_RPMAISON_ACH11	Rés princ Type maison 2006 à 2011 en 2014 (princ)	4	['P14_RP_ACH11']
P14_RPMAISON_ACH19	Rés princ Type maison avt 1919 en 2014 (princ)	4	['P14_RP_ACH19']
P14_RPMAISON_ACH45	Rés princ Type maison 1919 à 1945 en 2014 (princ)	4	['P14_RP_ACH45']
P14_RPMAISON_ACH70	Rés princ Type maison 1946 à 1970 en 2014 (princ)	4	['P14_RP_ACH70']
P14_RPMAISON_ACH90	Rés princ Type maison 1971 à 1990 en 2014 (princ)	4	['P14_RP_ACH90']
P14_RPMAISON_ACHTOT	Rés princ Type maison avt 2012 en 2014 (princ)	4	['P14_RPMAISON']
P14_RSECOCC	Rés secondaires et logts occasionnels en 2014 (princ)	2	['P14_LOG']
P14_SAL15P	Salariés 15 ans ou plus en 2014 (princ)	3	['P14_POP15P']
P14_SAL15P_APPR	Salariés 15 ans ou plus Apprentissage - Stage en 2014 (princ)	4	['P14_SAL15P']
P14_SAL15P_CDD	Salariés 15 ans ou plus CDD en 2014 (princ)	4	['P14_SAL15P']
P14_SAL15P_CDI	Salariés 15 ans ou plus Fonct publ, CDI en 2014 (princ)	4	['P14_SAL15P']
P14_SAL15P_EMPAID	Salariés 15 ans ou plus Emplois aidés en 2014 (princ)	4	['P14_SAL15P']
P14_SAL15P_INTERIM	Salariés 15 ans ou plus Intérim en 2014 (princ)	4	['P14_SAL15P']
P14_SAL15P_TP	Salariés 15 ans ou plus TP en 2014 (princ)	4	['P14_SAL15P']
P14_SCOL0205	Pop scolarisée 2-5 ans en 2014 (princ)	3	['P14_POP0205']
P14_SCOL0610	Pop scolarisée 6-10 ans en 2014 (princ)	3	['P14_POP0610']
P14_SCOL1114	Pop scolarisée 11-14 ans en 2014 (princ)	3	['P14_POP1114']
P14_SCOL1517	Pop scolarisée 15-17 ans en 2014 (princ)	3	['P14_POP1517']
P14_SCOL1824	Pop scolarisée 18-24 ans en 2014 (princ)	3	['P14_POP1824']
P14_SCOL2529	Pop scolarisée 25-29 ans en 2014 (princ)	3	['P14_POP2529']
P14_SCOL30P	Pop scolarisée 30 ans ou plus en 2014 (princ)	3	['P14_POP30P']
