{
	"DATABASE_NAME": "dbinsee",
	"COLLECTION_NAME": "colliris",
	"VARIABLES_VALUES": {
		"en": {
			"variable1": {
				"label": "Building type",
				"values": ["Houses", "Mixed", "Towers", "Housing estates", "Housing subdivisions"],
				"low_influence_value": "Mixed",
				"median_value": "Mixed"
			},
			"variable2": {
				"label": "Building usage",
				"values": ["Housing", "Shopping", "Other activities"],
				"low_influence_value": "Housing",
				"median_value": "Housing"
			},
			"variable3": {
				"label": "Landscape",
				"values": ["Urban", "Green areas", "Forest", "Countryside"],
				"low_influence_value": "Countryside",
				"median_value": "Green areas"
			},
			"variable4": {
				"label": "Morphological position",
				"values": ["Central", "Urban", "Peri-urban", "Rural"],
				"low_influence_value": "Rural",
				"median_value": "Urban"
			},
			"variable5": {
				"label": "Geographical position",
				"values": ["Centre", "North", "South", "East", "West", "North-East", "South-East", "North-West", "South-West"],
				"low_influence_value": "Centre",
				"median_value": "Centre"
			},
			"variable6": {
				"label": "Social class",
				"values": ["Lower", "Lower middle", "Middle", "Upper middle", "Upper"],
				"low_influence_value": "Middle",
				"median_value": "Middle"
			}
		},
		"fr": {
			"variable1": {
				"label": "Type de bâtiment",
				"values": ["Maisons", "Mixte", "Immeubles", "Grand ensemble", "Lotissement"],
				"low_influence_value": "Mixte",
				"median_value": "Mixte"
			},
			"variable2": {
				"label": "Usage",
				"values": ["Résidentiel", "Commerçant", "Autres activités"],
				"low_influence_value": "Résidentiel",
				"median_value": "Résidentiel"
			},
			"variable3": {
				"label": "Paysage",
				"values": ["Urbanisé", "Espaces verts", "Arboré", "Agricole"],
				"low_influence_value": "Agricole",
				"median_value": "Espaces verts"
			},
			"variable4": {
				"label": "Position morphologique",
				"values": ["Central", "Urbain", "Péri-urbain", "Rural"],
				"low_influence_value": "Rural",
				"median_value": "Urbain"
			},
			"variable5": {
				"label": "Position géographique",
				"values": ["Centre", "Nord", "Sud", "Est", "Ouest", "Nord-Est", "Sud-Est", "Nord-Ouest", "Sud-Ouest"],
				"low_influence_value": "Centre",
				"median_value": "Centre"
			},
			"variable6": {
				"label": "Classe sociale",
				"values": ["Populaire", "Moyen-inf", "Moyen", "Moyen-sup", "Supérieur"],
				"low_influence_value": "Moyen",
				"median_value": "Moyen"
			}
		}
	},
	"NORMALIZATION": "density",
	"VARIABLE_REMOVE_LOW_REPRESENTATIVITY": "variable4"
}
