0,C14_PMEN_MENCOUPSENF,P14_POP0205,P14_RPAPPART_ACH19,C14_ACTOCC1564_CS3,DEC_D414,P14_NBPI_RPMAISON,C14_PMEN_CS3,P14_RP_ACH19,P14_ANEM_RP_PROP,P14_ACTOCC15P_ILT2,P14_MAISON,P14_PMEN_ANEM0509,C14_PMEN_MENCOUPAENF,AREA,P14_POP1824,P14_ACTOCC15P_ILT2P,DENSITY,P14_RPMAISON_ACHTOT,P14_RPAPPART,P14_NBPI_RPAPPART,P14_RPMAISON,P14_POP,C14_NE24F3,P14_SCOL1824,P14_RP_80100M2,C14_POP15P_CS3,P14_RPMAISON_ACH45,C14_ACTOCC15P_DROU,C14_PMEN_MENFAM,P14_RP_ACH90,C14_ACT1564_CS3,C14_ACTOCC15P_MAR,P14_RP_5PP,P14_SCOL1517,,
1,C14_ACTOCC1564_CS3,P14_RP_3040M2,C14_PMEN_CS3,P14_POP1524_PSEUL,P14_RPAPPART_ACH90,P14_RP_CCCOLL,P14_RP_ACH45,P14_ACTOCC15P_ILT2,NB_A504,P14_PMEN_ANEM0509,P14_NPER_RP_LOC,P14_POP0610,AREA,C14_MEN_CS6,DENSITY,P14_RP_PROP,P14_RPMAISON_ACHTOT,P14_POP,C14_FAMMONO,C14_POP15P_CS3,P14_ANEM_RP_LOCHLMV,P14_RP_LOCHLMV,P14_RP_ACH90,C14_PMEN_CS6,P14_NPER_RP_PROP,C14_ACT1564_CS3,C14_PMEN_MENSFAM,P14_POP0019,P14_APPART,P14_POP_IMM,,,,,,
2,C14_ACTOCC1564_CS3,DEC_Q114,P14_RPAPPART_ACH70,DEC_D414,C14_PMEN_CS7,P14_ANEM_RP,P14_POP1524_PSEUL,P14_ANEM_RP_PROP,P14_POP15P,P14_ACTOCC15P_ILT2,P14_RP_ACH45,P14_POP0610,AREA,DEC_Q314,P14_NSCOL15P,P14_ACTOCC15P_ILT2P,DENSITY,P14_POPMEN5579,P14_RP_VOIT2P,P14_RPMAISON_ACH90,P14_NBPI_RPAPPART,C14_MENSFAM,P14_POP,P14_SCOL1824,DEC_D614,C14_PMEN_MENFAM,DEC_D814,C14_NE24F2,P14_NPER_RP_PROP,C14_PMEN_MENSFAM,P14_APPART,DEC_D114,,,,
3,P14_RP_VOIT1,C14_PMEN_MENCOUPSENF,P14_RPAPPART_ACH19,P14_RPAPPART_ACH70,DEC_D414,P14_NBPI_RPMAISON,C14_PMEN_CS3,P14_RP_ACH19,P14_ANEM_RP_PROP,P14_ACTOCC15P_ILT2,P14_MAISON,P14_POP0610,AREA,P14_POP1824,P14_MEN_ANEM0002,P14_ACTOCC15P_ILT2P,P14_NSCOL15P_SUP,DENSITY,P14_RP_M30M2,P14_RP_1P,P14_ACT1524,C14_PMEN_MENFAMMONO,P14_RPMAISON_ACH90,P14_POP,P14_ANEM_RP_LOCHLMV,P14_LOGVAC,C14_PMEN_MENFAM,P14_RP_ACH90,C14_PMEN_CS6,P14_NPER_RP_PROP,C14_ACTOCC15P_TCOM,C14_ACT1564_CS2,C14_ACTOCC15P_MAR,P14_APPART,P14_ACTOCC15P_ILT1,P14_POP_IMM
4,P14_NPER_RP_LOCHLMV,P14_RP_CINDELEC,P14_ACTOCC15P_ILT3,P14_RPAPPART_ACH19,P14_RPAPPART_ACH70,P14_RP_CCCOLL,P14_RPAPPART_ACH90,P14_POP1524_PSEUL,P14_RP_ACH19,P14_RP_ACH45,P14_RP_ACH70,AREA,DENSITY,P14_RP_M30M2,P14_POP,C14_MEN_CS8,P14_POP_ETR,P14_RPAPPART_ACH11,C14_POP15P_CS3,P14_ANEM_RP_LOCHLMV,P14_NBPI_RP_ANEM0002,P14_RP_LOCHLMV,P14_ANEM_RP_LOC,P14_RPAPPART_ACH05,C14_ACTOCC15P_TCOM,C14_ACTOCC15P_MAR,P14_RP_LOC,DEC_D114,,,,,,,,
5,C14_MENHSEUL,P14_RP_CINDELEC,P14_ACTOCC15P_ILT3,P14_RPAPPART_ACH19,DEC_Q114,DEC_D314,P14_RP_CCCOLL,C14_PMEN_CS3,P14_RP_ACH19,P14_RP_2P,P14_NPER_RP_LOC,AREA,DEC_D714,C14_MEN_CS3,DEC_Q314,P14_ACTOCC15P_ILT2P,DEC_MED14,C14_ACTOCC15P_VOIT,DENSITY,P14_RP_M30M2,P14_RP_1P,P14_ACT1524,P14_POP,C14_MEN_CS8,C14_POP15P_CS3,P14_ANEM_RP_GRAT,P14_ANEM_RP_LOCHLMV,DEC_D814,DEC_D914,C14_PMEN_MENSFAM,P14_POP1529,P14_ACTOCC15P_ILT1,P14_POP_IMM,,,
